FPGA/lab1/simulation/qsim/counter.msim.vcd
$comment
	File created using the following command:
		vcd file counter.msim.vcd -direction
$end
$date
	Thu Mar 12 16:47:49 2020
$end
$version
	ModelSim Version 10.5b
$end
$timescale
	1ps
$end

$scope module counter_vlg_vec_tst $end
$var reg 1 ! clk $end
$var reg 1 " direction $end
$var reg 1 # reset $end
$var reg 1 $ set $end
$var reg 6 % set_value [5:0] $end
$var wire 1 & out [5] $end
$var wire 1 ' out [4] $end
$var wire 1 ( out [3] $end
$var wire 1 ) out [2] $end
$var wire 1 * out [1] $end
$var wire 1 + out [0] $end

$scope module i1 $end
$var wire 1 , gnd $end
$var wire 1 - vcc $end
$var wire 1 . unknown $end
$var tri1 1 / devclrn $end
$var tri1 1 0 devpor $end
$var tri1 1 1 devoe $end
$var wire 1 2 ~QUARTUS_CREATED_GND~I_combout $end
$var wire 1 3 set_value[0]~input_o $end
$var wire 1 4 reset~input_o $end
$var wire 1 5 set~input_o $end
$var wire 1 6 out[5]~26_combout $end
$var wire 1 7 out[0]~1_combout $end
$var wire 1 8 clk~input_o $end
$var wire 1 9 clk~inputCLKENA0_outclk $end
$var wire 1 : out[0]~3_combout $end
$var wire 1 ; out[0]~0_combout $end
$var wire 1 < out[0]~reg0_emulated_q $end
$var wire 1 = out[0]~2_combout $end
$var wire 1 > set_value[1]~input_o $end
$var wire 1 ? out[1]~5_combout $end
$var wire 1 @ direction~input_o $end
$var wire 1 A r_direction~0_combout $end
$var wire 1 B r_direction~q $end
$var wire 1 C Add0~22_cout $end
$var wire 1 D Add0~1_sumout $end
$var wire 1 E out[1]~7_combout $end
$var wire 1 F out[1]~reg0_emulated_q $end
$var wire 1 G out[1]~6_combout $end
$var wire 1 H set_value[2]~input_o $end
$var wire 1 I out[2]~9_combout $end
$var wire 1 J Add0~2 $end
$var wire 1 K Add0~5_sumout $end
$var wire 1 L out[2]~11_combout $end
$var wire 1 M out[2]~reg0_emulated_q $end
$var wire 1 N out[2]~10_combout $end
$var wire 1 O set_value[3]~input_o $end
$var wire 1 P out[3]~13_combout $end
$var wire 1 Q Add0~6 $end
$var wire 1 R Add0~9_sumout $end
$var wire 1 S out[3]~15_combout $end
$var wire 1 T out[3]~reg0_emulated_q $end
$var wire 1 U out[3]~14_combout $end
$var wire 1 V set_value[4]~input_o $end
$var wire 1 W out[4]~17_combout $end
$var wire 1 X Add0~10 $end
$var wire 1 Y Add0~13_sumout $end
$var wire 1 Z out[4]~19_combout $end
$var wire 1 [ out[4]~reg0_emulated_q $end
$var wire 1 \ out[4]~18_combout $end
$var wire 1 ] set_value[5]~input_o $end
$var wire 1 ^ out[5]~21_combout $end
$var wire 1 _ Add0~14 $end
$var wire 1 ` Add0~17_sumout $end
$var wire 1 a out[5]~23_combout $end
$var wire 1 b out[5]~reg0_emulated_q $end
$var wire 1 c out[5]~22_combout $end
$upscope $end
$upscope $end
$enddefinitions $end
#0
$dumpvars
0!
0"
0#
0$
b0 %
0+
0*
0)
0(
0'
0&
0,
1-
x.
1/
10
11
02
03
04
05
06
07
08
09
1:
0;
0<
0=
0>
0?
0@
1A
0B
0C
1D
1E
0F
0G
0H
0I
0J
1K
1L
0M
0N
0O
0P
0Q
1R
1S
0T
0U
0V
0W
0X
1Y
1Z
0[
0\
0]
0^
0_
1`
1a
0b
0c
$end
#10000
1!
18
19
1b
1[
1T
1M
1F
1<
1=
1G
1N
1U
1\
1c
1&
1'
1(
1)
1*
1+
0`
1_
0Y
1X
0R
1Q
0K
1J
0D
1C
0:
1`
1Y
1R
1K
1D
0E
0L
0S
0Z
0a
1E
1L
1S
1Z
1a
#20000
0!
08
09
#30000
1!
18
19
0<
0=
0+
0C
1:
0D
0E
#40000
0!
08
09
#50000
1!
18
19
0F
1<
1=
0G
0*
1+
0J
1D
1C
0:
0K
1J
0D
1E
1K
0E
0L
1L
#60000
0!
08
09
#70000
1!
18
19
0<
0=
0+
0C
1:
0J
1D
0K
1E
0L
#80000
0!
08
09
#90000
1!
18
19
0M
1F
1<
1=
1G
0N
0)
1*
1+
0Q
1K
1J
0D
1C
0:
0R
1Q
0K
1D
0E
1L
1R
1E
0L
0S
1S
#100000
0!
08
09
#110000
1!
18
19
0<
0=
0+
0C
1:
0D
0E
#120000
0!
08
09
#130000
1!
18
19
0F
1<
1=
0G
0*
1+
0J
1D
1C
0:
0Q
1K
1J
0D
1E
0R
1Q
0K
0E
1L
1R
0L
0S
1S
#140000
0!
08
09
#150000
1!
18
19
0<
0=
0+
0C
1:
0J
1D
0Q
1K
1E
0R
1L
0S
#160000
0!
08
09
#170000
1!
18
19
0T
1M
1F
1<
1=
1G
1N
0U
0(
1)
1*
1+
0X
1R
1Q
0K
1J
0D
1C
0:
0Y
1X
0R
1K
1D
0E
0L
1S
1Y
1E
1L
0S
0Z
1Z
#180000
0!
08
09
#190000
1!
18
19
0<
0=
0+
0C
1:
0D
0E
#200000
0!
08
09
#210000
1!
18
19
0F
1<
1=
0G
0*
1+
0J
1D
1C
0:
0K
1J
0D
1E
1K
0E
0L
1L
#220000
0!
08
09
#230000
1!
18
19
0<
0=
0+
0C
1:
0J
1D
0K
1E
0L
#240000
0!
08
09
#250000
1!
18
19
0M
1F
1<
1=
1G
0N
0)
1*
1+
0Q
1K
1J
0D
1C
0:
0X
1R
1Q
0K
1D
0E
1L
0Y
1X
0R
1E
0L
1S
1Y
0S
0Z
1Z
#260000
0!
08
09
#270000
1!
18
19
0<
0=
0+
0C
1:
0D
0E
#280000
0!
08
09
#290000
1!
18
19
0F
1<
1=
0G
0*
1+
0J
1D
1C
0:
0Q
1K
1J
0D
1E
0X
1R
1Q
0K
0E
1L
0Y
1X
0R
0L
1S
1Y
0S
0Z
1Z
#300000
0!
08
09
#310000
1!
18
19
0<
0=
0+
0C
1:
0J
1D
0Q
1K
1E
0X
1R
1L
0Y
1S
0Z
#320000
0!
08
09
#330000
1!
18
19
0[
1T
1M
1F
1<
1=
1G
1N
1U
0\
0'
1(
1)
1*
1+
0_
1Y
1X
0R
1Q
0K
1J
0D
1C
0:
0`
1_
0Y
1R
1K
1D
0E
0L
0S
1Z
1`
1E
1L
1S
0Z
0a
1a
#340000
0!
08
09
#350000
1!
18
19
0<
0=
0+
0C
1:
0D
0E
#360000
0!
08
09
#370000
1!
18
19
0F
1<
1=
0G
0*
1+
0J
1D
1C
0:
0K
1J
0D
1E
1K
0E
0L
1L
#380000
0!
08
09
#390000
1!
18
19
0<
0=
0+
0C
1:
0J
1D
0K
1E
0L
#400000
0!
08
09
#410000
1!
18
19
0M
1F
1<
1=
1G
0N
0)
1*
1+
0Q
1K
1J
0D
1C
0:
0R
1Q
0K
1D
0E
1L
1R
1E
0L
0S
1S
#420000
0!
08
09
#430000
1!
18
19
0<
0=
0+
0C
1:
0D
0E
#440000
0!
08
09
#450000
1!
18
19
0F
1<
1=
0G
0*
1+
0J
1D
1C
0:
0Q
1K
1J
0D
1E
0R
1Q
0K
0E
1L
1R
0L
0S
1S
#460000
0!
08
09
#470000
1!
18
19
0<
0=
0+
0C
1:
0J
1D
0Q
1K
1E
0R
1L
0S
#480000
0!
08
09
#490000
1!
18
19
0T
1M
1F
1<
1=
1G
1N
0U
0(
1)
1*
1+
0X
1R
1Q
0K
1J
0D
1C
0:
0_
1Y
1X
0R
1K
1D
0E
0L
1S
0`
1_
0Y
1E
1L
0S
1Z
1`
0Z
0a
1a
#500000
0!
08
09
#510000
1!
18
19
0<
0=
0+
0C
1:
0D
0E
#520000
0!
08
09
#530000
1!
18
19
0F
1<
1=
0G
0*
1+
0J
1D
1C
0:
0K
1J
0D
1E
1K
0E
0L
1L
#540000
0!
08
09
#550000
1!
18
19
0<
0=
0+
0C
1:
0J
1D
0K
1E
0L
#560000
0!
08
09
#570000
1!
18
19
0M
1F
1<
1=
1G
0N
0)
1*
1+
0Q
1K
1J
0D
1C
0:
0X
1R
1Q
0K
1D
0E
1L
0_
1Y
1X
0R
1E
0L
1S
0`
1_
0Y
0S
1Z
1`
0Z
0a
1a
#580000
0!
08
09
#590000
1!
18
19
0<
0=
0+
0C
1:
0D
0E
#600000
0!
08
09
#610000
1!
18
19
0F
1<
1=
0G
0*
1+
0J
1D
1C
0:
0Q
1K
1J
0D
1E
0X
1R
1Q
0K
0E
1L
0_
1Y
1X
0R
0L
1S
0`
1_
0Y
0S
1Z
1`
0Z
0a
1a
#620000
0!
08
09
#630000
1!
18
19
0<
0=
0+
0C
1:
0J
1D
0Q
1K
1E
0X
1R
1L
0_
1Y
1S
0`
1Z
0a
#640000
0!
08
09
#650000
1!
18
19
0b
1[
1T
1M
1F
1<
1=
1G
1N
1U
1\
0c
0&
1'
1(
1)
1*
1+
1`
1_
0Y
1X
0R
1Q
0K
1J
0D
1C
0:
0`
1Y
1R
1K
1D
0E
0L
0S
0Z
1a
1E
1L
1S
1Z
0a
#660000
0!
08
09
#670000
1!
18
19
0<
0=
0+
0C
1:
0D
0E
#680000
0!
08
09
#690000
1!
18
19
0F
1<
1=
0G
0*
1+
0J
1D
1C
0:
0K
1J
0D
1E
1K
0E
0L
1L
#700000
0!
08
09
#710000
1!
18
19
0<
0=
0+
0C
1:
0J
1D
0K
1E
0L
#720000
0!
08
09
#730000
1!
18
19
0M
1F
1<
1=
1G
0N
0)
1*
1+
0Q
1K
1J
0D
1C
0:
0R
1Q
0K
1D
0E
1L
1R
1E
0L
0S
1S
#740000
0!
08
09
#750000
1!
18
19
0<
0=
0+
0C
1:
0D
0E
#760000
0!
08
09
#770000
1!
18
19
0F
1<
1=
0G
0*
1+
0J
1D
1C
0:
0Q
1K
1J
0D
1E
0R
1Q
0K
0E
1L
1R
0L
0S
1S
#780000
0!
08
09
#790000
1!
18
19
0<
0=
0+
0C
1:
0J
1D
0Q
1K
1E
0R
1L
0S
#800000
0!
08
09
#810000
1!
18
19
0T
1M
1F
1<
1=
1G
1N
0U
0(
1)
1*
1+
0X
1R
1Q
0K
1J
0D
1C
0:
0Y
1X
0R
1K
1D
0E
0L
1S
1Y
1E
1L
0S
0Z
1Z
#820000
0!
08
09
#830000
1!
18
19
0<
0=
0+
0C
1:
0D
0E
#840000
0!
08
09
#850000
1!
18
19
0F
1<
1=
0G
0*
1+
0J
1D
1C
0:
0K
1J
0D
1E
1K
0E
0L
1L
#860000
0!
08
09
#870000
1!
18
19
0<
0=
0+
0C
1:
0J
1D
0K
1E
0L
#880000
0!
08
09
#890000
1!
18
19
0M
1F
1<
1=
1G
0N
0)
1*
1+
0Q
1K
1J
0D
1C
0:
0X
1R
1Q
0K
1D
0E
1L
0Y
1X
0R
1E
0L
1S
1Y
0S
0Z
1Z
#900000
0!
08
09
#910000
1!
18
19
0<
0=
0+
0C
1:
0D
0E
#920000
0!
08
09
#930000
1!
18
19
0F
1<
1=
0G
0*
1+
0J
1D
1C
0:
0Q
1K
1J
0D
1E
0X
1R
1Q
0K
0E
1L
0Y
1X
0R
0L
1S
1Y
0S
0Z
1Z
#940000
0!
08
09
#950000
1!
18
19
0<
0=
0+
0C
1:
0J
1D
0Q
1K
1E
0X
1R
1L
0Y
1S
0Z
#960000
0!
08
09
#970000
1!
18
19
0[
1T
1M
1F
1<
1=
1G
1N
1U
0\
0'
1(
1)
1*
1+
0_
1Y
1X
0R
1Q
0K
1J
0D
1C
0:
1`
1_
0Y
1R
1K
1D
0E
0L
0S
1Z
0`
1E
1L
1S
0Z
1a
0a
#980000
0!
08
09
#990000
1!
18
19
0<
0=
0+
0C
1:
0D
0E
